[gd_scene load_steps=4 format=2]

[ext_resource path="res://coin1.gd" type="Script" id=1]
[ext_resource path="res://assets/tilesets/sci-fi-tileset.png" type="Texture" id=2]

[sub_resource type="RectangleShape2D" id=1]

[node name="Coin_White" type="Node2D"]
script = ExtResource( 1 )

[node name="coin1" type="Area2D" parent="."]

[node name="Sprite" type="Sprite" parent="coin1"]
texture = ExtResource( 2 )
vframes = 8
hframes = 8
frame = 53

[node name="CollisionShape2D" type="CollisionShape2D" parent="coin1"]
rotation = 0.753927
scale = Vector2( 1.69915, 1.69915 )
shape = SubResource( 1 )
[connection signal="area_entered" from="coin1" to="." method="_on_coin1_area_entered"]
